{
  "info": {
    "_postman_id": "c0e16b82-c551-4039-9aa7-32e828beef2c",
    "name": "Agenda - Postman Collection",
    "schema": "https://schema.getpostman.com/json/collection/v2.1.0/collection.json"
  },
  "item": [
    {
      "name": "ELIMINAR CONTACTO",
      "request": {
        "method": "DELETE",
        "header": [],
        "url": {
          "raw": "localhost:8080/contacto/5e6d495940c9d2db45c428c4",
          "host": ["localhost"],
          "port": "8080",
          "path": ["contacto", "5e6d495940c9d2db45c428c4"]
        }
      },
      "response": []
    },
    {
      "name": "ACTUALIZAR CONTACTO",
      "request": {
        "method": "PUT",
        "header": [
          {
            "key": "Content-Type",
            "name": "Content-Type",
            "value": "application/json",
            "type": "text"
          }
        ],
        "body": {
          "mode": "raw",
          "raw": "{\n\t\"nombres\":\"Pepe\",\n\t\"apellidoPaterno\": \"Ruiz\",\n\t\"apellidoMaterno\": \"de los Rios\",\n\t\"movil\": 1231231,\n\t\"fijo\": 1231231,\n\t\"email\": \"arsda@asdasd.com\"\n}",
          "options": {
            "raw": {
              "language": "json"
            }
          }
        },
        "url": {
          "raw": "localhost:8080/contacto/5e6d495940c9d2db45c428c4",
          "host": ["localhost"],
          "port": "8080",
          "path": ["contacto", "5e6d495940c9d2db45c428c4"]
        }
      },
      "response": []
    },
    {
      "name": "CREAR CONTACTO",
      "request": {
        "method": "POST",
        "header": [
          {
            "key": "Content-Type",
            "name": "Content-Type",
            "value": "application/json",
            "type": "text"
          }
        ],
        "body": {
          "mode": "raw",
          "raw": "{\n\t\"nombres\":\"Pepe\",\n\t\"apellidoPaterno\": \"Ruiz\",\n\t\"apellidoMaterno\": \"Montoya\",\n\t\"movil\": 1231231,\n\t\"fijo\": 1231231,\n\t\"email\": \"arsda@asdasd.com\"\n}",
          "options": {
            "raw": {
              "language": "json"
            }
          }
        },
        "url": {
          "raw": "localhost:8080/contacto",
          "host": ["localhost"],
          "port": "8080",
          "path": ["contacto"]
        }
      },
      "response": []
    },
    {
      "name": "LISTAR CONTACTOS",
      "request": {
        "method": "GET",
        "header": [],
        "url": {
          "raw": "localhost:8080/contactos/list",
          "host": ["localhost"],
          "port": "8080",
          "path": ["contactos", "list"]
        }
      },
      "response": []
    },
    {
      "name": "MOSTRAR UN CONTACTO",
      "request": {
        "method": "GET",
        "header": [],
        "url": {
          "raw": "localhost:8080/contacto/5e6d1dd74f4ba20700b91961",
          "host": ["localhost"],
          "port": "8080",
          "path": ["contacto", "5e6d1dd74f4ba20700b91961"]
        }
      },
      "response": []
    }
  ],
  "event": [
    {
      "listen": "prerequest",
      "script": {
        "id": "242a9487-1840-4941-bfab-a6d1d273025e",
        "type": "text/javascript",
        "exec": [""]
      }
    },
    {
      "listen": "test",
      "script": {
        "id": "b52c1b8c-490b-4701-896b-9df8935a721e",
        "type": "text/javascript",
        "exec": [""]
      }
    }
  ],
  "protocolProfileBehavior": {}
}
